1 10 20
100 200 125
201 210 89
900 1000 174
900193 159295 525
549492 107443 470
377223 548763 470
518455 707564 509
597741 12265 470
786659 893177 525
161233 961947 525
530415 230255 470
52928 69848 335
941490 10218 525
259023 997741 525
942661 703782 525
808689 980138 525
382007 85958 443
768588 765402 468
36505 895107 525
534752 624328 452
649896 388865 509
533534 243201 470
938893 232214 525
110319 314023 443
56712 484160 449
343356 726041 509
726242 650651 504
252475 633773 509
972343 778009 525
365282 416322 449
540699 17068 470
65596 390621 443
830433 509908 509
581180 814789 509
512286 515506 395
55643 990694 525
684658 802478 504
600760 795070 509
622925 540960 452
285070 566923 470
65848 626247 470
743697 973165 525
516747 483309 470
92939 270659 443
977807 530076 525
986946 876753 507
119983 392586 443
795364 757414 468
25688 809941 509
469139 34802 449
619493 437025 470
167750 471428 449
439354 293264 449
640101 80875 509
743795 103838 509
270829 39968 443
863916 384376 525
854806 700051 525
556875 542216 452
671872 925987 525
435531 311827 449
261256 262885 332
682057 188473 509
439912 270208 449
396613 885868 525
758723 589213 509
18436 447701 449
118874 370130 443
425839 979416 525
116847 596702 470
977455 250742 525
634400 896502 525
879955 672313 525
576265 534526 452
32183 150465 375
874620 260388 525
304748 181088 443
147646 646511 509
507730 16415 449
160820 322080 443
684241 173075 509
185812 875144 525
667212 900676 525
609813 145271 470
531767 468744 470
784189 949443 525
553647 332661 470
507923 418558 444
570098 918777 525
632467 303559 509
194760 971745 525
498792 500312 395
265635 165152 443
874593 544447 525
30094 519301 470
505845 409898 449
232641 922570 525
663382 22451 509
925010 602329 525
763725 153878 509
959893 738581 525
30614 206466 383
696039 121348 509
610471 63704 470
41108 609759 470
676755 339145 509
729123 522445 509
406651 228965 443
529211 550961 452
360915 100315 443
385541 293580 441
948149 55590 525
138869 189227 383
104020 853667 525
795949 818969 468
372822 930456 525
101709 561092 470
130983 11711 354
405689 459103 449
873795 79067 525
120927 230581 386
240306 654801 509
693313 871967 525
31520 491717 449
922225 249166 525
833474 102493 509
28820 767659 509
517198 203226 470
518656 979177 525
921429 280994 525
625492 705271 509
49112 733175 509
606728 54526 470
300763 779417 509
115419 936986 525
352235 16720 443
434322 301345 449
640915 327143 509
576797 121734 470
265819 622566 470
764897 783092 468
859204 741962 525
741266 715155 424
830284 546690 509
813180 601664 509
393525 683878 509
78678 391325 443
748257 147643 509
451368 463149 444
746972 326594 509
216295 828927 509
616969 458615 470
336338 627966 509
334130 639050 509
586968 303437 470
802403 580211 509
950767 344086 525
244865 995837 525
953501 110707 525
324445 894791 525
36910 385115 443
636542 743296 504
979699 958699 458
410751 952564 525
512525 419894 470
734492 155793 509
998366 241998 525
118635 444420 449
587800 401919 470
736135 625527 509
856319 325280 525
499242 489921 426
111750 507222 449
843533 887648 445
516727 415985 470
269423 864800 525
145817 205084 383
324069 307592 384
280460 345358 389
774158 576110 509
964297 353732 525
56406 346546 443
625880 579678 447
518467 561105 452
630300 149901 509
603026 156488 470
996335 590101 525
551206 925880 525
207549 500142 449
512488 825498 509
693042 186799 509
800013 653386 504
538255 633071 509
7652 354321 443
366590 79230 443
137352 759671 509
606986 565171 434
128781 236167 443
790708 302790 509
418519 692585 509
278416 138643 443
391803 795062 509
8482 938517 525
337072 878414 525
567681 82269 470
658828 277357 509
818585 607540 509
761485 324177 509
708064 574499 509
43249 955831 525
978078 668271 525
960760 908746 507
653321 881368 525
96421 661585 509
71755 754256 509
408665 256969 441
886719 149510 525
664091 494466 509
188427 628322 509
865084 159235 525
838280 447721 525
855781 489502 525
116287 194157 383
366801 194682 443
719689 819282 468
133762 802018 509
21222 949180 525
840447 318141 525
988182 678446 525
433309 301508 449
181299 517203 470
256583 656027 509
984988 734732 525
636868 280426 509
814866 9552 509
506538 381719 449
139695 900283 525
348012 673636 509
316556 42139 443
269979 399984 441
424902 568895 470
915148 743709 525
373708 239938 441
903959 84359 525
463484 388915 449
237594 732549 509
900939 214361 525
569086 697784 509
895246 227418 525
403634 167304 443
580795 280114 470
800588 66283 509
899699 736556 525
