828764 999862 525
216564 919108 525
400246 863156 525
216916 242072 443
944140 961731 414
28244 729004 509
549487 716949 509
428850 813361 509
394634 598872 470
911050 992489 507
546413 816049 509
790786 911099 525
165723 936137 525
540229 808848 509
835664 993780 525
593937 852001 525
708268 833290 468
767711 772544 468
751234 886827 525
836748 997418 525
999628 999803 290
343446 800724 509
412131 870283 525
667720 853600 525
459656 541244 470
576055 608743 434
323899 653299 509
672735 922404 525
64836 92020 351
907329 976171 507
727899 764573 424
893092 940971 507
322061 655276 509
968185 975508 458
390724 815269 509
400495 707499 509
620624 827908 509
653772 653909 310
618920 623344 372
98645 626613 509
561236 584926 434
446113 496764 444
278236 540715 470
565252 797781 509
280705 423297 449
621643 818313 509
417341 860051 525
230911 963097 525
22833 990421 525
479823 642803 509
374204 590640 470
935376 973650 507
477275 800716 509
619475 735285 509
796680 797445 375
749852 898479 525
383848 411751 449
709432 885904 525
741418 839584 525
509716 869931 525
481876 911669 525
377324 482139 449
116374 786945 509
26995 413291 449
296204 626492 509
78870 673621 509
129811 603307 470
503628 751503 509
948390 978911 458
414136 681214 509
892793 911142 476
374579 691401 509
602043 739768 509
385145 451150 449
66704 398581 443
11594 835379 509
534574 743660 509
860104 902649 445
473170 575101 470
7002 428856 449
355441 903536 525
502471 974665 525
335762 915727 525
414758 821113 509
998155 998422 277
70957 509168 449
422253 812197 509
229422 283172 443
921469 964558 507
692617 802116 504
201149 613928 470
382068 743615 509
28252 370577 443
913443 958020 507
335305 609214 470
118176 146652 375
157914 904924 525
840731 913907 476
374709 773192 509
653054 760882 504
199726 637550 509
881746 955632 507
757550 761958 380
991129 999437 440
194674 736933 509
116276 500400 449
298707 442095 449
248729 786741 509
845299 913956 476
886459 975009 507
212726 245819 443
179124 882473 525
792468 834881 468
724709 922861 525
597824 854074 525
543439 611838 452
554324 591121 434
161734 728874 509
286228 326517 389
210786 934486 525
534948 961218 525
932310 992537 507
718596 991784 525
392680 558479 470
225653 931139 525
286824 557723 470
632178 804499 504
604791 933950 525
76008 317192 443
787147 901803 525
264626 645428 509
402900 548000 470
704671 942883 525
346041 885959 525
772532 807213 468
141421 480344 449
704800 991477 525
802040 909673 525
938008 946933 507
471722 577180 470
124228 893921 525
857900 917727 476
87629 798743 509
738283 786335 468
725650 903790 525
795737 833114 468
300964 455962 449
723858 914032 525
121990 933569 525
826048 866429 525
891677 891825 251
462177 548791 470
759826 949620 525
226326 593048 470
52258 108743 354
222297 684380 509
973764 992338 427
335022 636934 509
722987 998395 525
693889 861162 525
229853 573654 470
55727 70558 335
871802 899296 445
311695 432138 449
581674 948762 525
69005 279111 443
313497 888641 525
431439 727132 509
799568 810107 406
540810 958279 525
423709 499195 444
883453 988774 507
818153 874931 525
154353 948919 525
842896 934105 476
833412 972899 525
482559 630893 509
562901 938652 525
848486 979996 507
990987 996334 365
126636 826597 509
487139 611590 470
59609 977127 525
526024 530227 408
142642 389210 443
625866 964817 525
137753 346823 443
205730 874166 525
271749 849364 525
669699 883513 525
99825 271167 443
27935 526909 470
267911 665014 509
467411 771906 509
272085 422883 449
891863 903769 401
903483 914908 476
280290 572092 470
471514 531999 470
643913 797320 504
224049 863105 525
765211 877662 525
560939 566316 421
459111 930367 525
476533 785063 509
806940 987885 525
691054 860303 525
33950 983225 525
339448 925057 525
536301 992579 525
515633 622493 452
714355 754452 424
945730 997986 458
482386 929832 525
210461 990259 525
40385 964220 525
659924 776804 504
705307 845411 525
581827 659547 509
240184 603125 470
